<?xml version="1.0" encoding="UTF-8"?>
<expressions>
  <scale-expressions>
      <scale-expression expected="10">10</scale-expression>
      <scale-expression expected="'hab01">'hab01</scale-expression>
      <scale-expression expected="'hab01">'hab01</scale-expression>
      <scale-expression expected="'hab01">'hab01</scale-expression>
      <scale-expression expected="10 * (2 ** 10)">10 * (2 ** 10)</scale-expression>
      <scale-expression expected="'h10 * (2 ** 10)">'h10 * (2 ** 10)</scale-expression>
      <scale-expression expected="10 * (2 ** 20)">10 * (2 ** 20)</scale-expression>
      <scale-expression expected="'h10 * (2 ** 20)">'h10 * (2 ** 20)</scale-expression>
      <scale-expression expected="10 * (2 ** 30)">10 * (2 ** 30)</scale-expression>
      <scale-expression expected="'h10 * (2 ** 30)">'h10 * (2 ** 30)</scale-expression>
      <scale-expression expected="10 * (2 ** 40)">10 * (2 ** 40)</scale-expression>
      <scale-expression expected="'h10 * (2 ** 40)">'h10 * (2 ** 40)</scale-expression>
  </scale-expressions>
  <scale-expressions>
      <scale-expression expected="8'd10">8'd10</scale-expression>
      <scale-expression expected="8'hab01">8'hab01</scale-expression>
      <scale-expression expected="8'hab01">8'hab01</scale-expression>
      <scale-expression expected="8'hab01">8'hab01</scale-expression>
      <scale-expression expected="8'd10 * (2 ** 10)">8'd10 * (2 ** 10)</scale-expression>
      <scale-expression expected="8'h10 * (2 ** 10)">8'h10 * (2 ** 10)</scale-expression>
      <scale-expression expected="8'd10 * (2 ** 20)">8'd10 * (2 ** 20)</scale-expression>
      <scale-expression expected="8'h10 * (2 ** 20)">8'h10 * (2 ** 20)</scale-expression>
      <scale-expression expected="8'd10 * (2 ** 30)">8'd10 * (2 ** 30)</scale-expression>
      <scale-expression expected="8'h10 * (2 ** 30)">8'h10 * (2 ** 30)</scale-expression>
      <scale-expression expected="8'd10 * (2 ** 40)">8'd10 * (2 ** 40)</scale-expression>
      <scale-expression expected="8'h10 * (2 ** 40)">8'h10 * (2 ** 40)</scale-expression>
      <scale-expression expected="8'b101010011">8'b101010011</scale-expression>
  </scale-expressions>
  <and-expressions>
      <expression expected="(1) &amp;&amp; (0)">(1) &amp;&amp; (0)</expression>
      <expression expected="(1) &amp;&amp; 0">(1) &amp;&amp; 0</expression>
      <expression expected="1 &amp;&amp; (0)">1 &amp;&amp; (0)</expression>
      <expression expected="1 &amp;&amp; 0">1 &amp;&amp; 0</expression>
      <expression expected="(1) &amp;&amp; (0)">(1) &amp;&amp; (0)</expression>
      <expression expected="1 &amp;&amp; (0)">1 &amp;&amp; (0)</expression>
      <expression expected="1 &amp;&amp; 0">1 &amp;&amp; 0</expression>
      <expression expected="1 &amp;&amp; 0">1 &amp;&amp; 0</expression>
      <expression expected="1 &amp;&amp; 0">1 &amp;&amp; 0</expression>
      <expression expected="1 &amp;&amp; 0">1 &amp;&amp; 0</expression>
      <expression expected="(1) &amp;&amp; (0)">(1) &amp;&amp; (0)</expression>
      <expression expected="1 &amp;&amp; (0)">1 &amp;&amp; (0)</expression>
      <expression expected="(1) &amp;&amp; 0">(1) &amp;&amp; 0</expression>
      <expression expected="1 &amp;&amp; 0">1 &amp;&amp; 0</expression>
  </and-expressions>
  <or-expressions>
      <expression expected="(1) || (0)">(1) || (0)</expression>
      <expression expected="(1) || 0">(1) || 0</expression>
      <expression expected="1 || (0)">1 || (0)</expression>
      <expression expected="1 || 0">1 || 0</expression>
      <expression expected="(1) || (0)">(1) || (0)</expression>
      <expression expected="1 || (0)">1 || (0)</expression>
      <expression expected="1 || 0">1 || 0</expression>
      <expression expected="1 || 0">1 || 0</expression>
      <expression expected="1 || 0">1 || 0</expression>
      <expression expected="1 || 0">1 || 0</expression>
      <expression expected="(1) || (0)">(1) || (0)</expression>
      <expression expected="1 || (0)">1 || (0)</expression>
      <expression expected="(1) || 0">(1) || 0</expression>
      <expression expected="1 || 0">1 || 0</expression>
    </or-expressions>

  <decode-id-expressions>
      <expression expected="'h123 * (2 ** 10)">'h123 * (2 ** 10)</expression>
      <expression expected="parameter-name">parameter-name</expression>
      <expression expected="parameter-name">parameter-name</expression>
      <expression expected="'h123 * (2 ** 10) + 10">'h123 * (2 ** 10) + 10</expression>
      <expression expected="parameter-name + 10">parameter-name + 10</expression>
      <expression expected="parameter-name + 10">parameter-name + 10</expression>
      <expression expected="10 + 'h123 * (2 ** 10)">10 + 'h123 * (2 ** 10)</expression>
      <expression expected="10 + parameter-name">10 + parameter-name</expression>
      <expression expected="10 + parameter-name">10 + parameter-name</expression>
      <expression expected="10 + 'h123 * (2 ** 10) + 10">10 + 'h123 * (2 ** 10) + 10</expression>
      <expression expected="10 + parameter-name + 10">10 + parameter-name + 10</expression>
      <expression expected="'h4000 * param_1">'h4000 * param_1</expression>
      <expression expected="10 + parameter name + 10">10 + parameter name + 10</expression>
      <expression expected="10 + parameter-name + 10">10 + parameter-name + 10</expression>
      <expression expected="10 + parameter-name + 10">10 + parameter-name + 10</expression>
  </decode-id-expressions>
  
  <operator-whitespace-expressions>
      <expression expected="10 * 10">10 * 10</expression>
      <expression expected="10 * 10">10 * 10</expression>
      <expression expected="10 * 10">10 * 10</expression>
      <expression expected="10 * param_1">10 * param_1</expression>
      <expression expected="10 * param_1">10 * param_1</expression>
      <expression expected="10 * param_1">10 * param_1</expression>
      <expression expected="10 + 10">10 + 10</expression>
      <expression expected="10 + 10">10 + 10</expression>
      <expression expected="10 + 10">10 + 10</expression>
      <expression expected="10 + param_1">10 + param_1</expression>
      <expression expected="10 + param_1">10 + param_1</expression>
      <expression expected="10 + param_1">10 + param_1</expression>
      <expression expected="10 - 10">10 - 10</expression>
      <expression expected="10 - 10">10 - 10</expression>
      <expression expected="10 - 10">10 - 10</expression>
      <expression expected="10 - param_1">10 - param_1</expression>
      <expression expected="10 - param_1">10 - param_1</expression>
      <expression expected="10 - param_1">10 - param_1</expression>
      <expression expected="10 &lt; 10">10 &lt; 10</expression>
      <expression expected="10 &lt; 10">10 &lt; 10</expression>
      <expression expected="10 &lt; 10">10 &lt; 10</expression>
      <expression expected="10 &lt; param_1">10 &lt; param_1</expression>
      <expression expected="10 &lt; param_1">10 &lt; param_1</expression>
      <expression expected="10 &lt; param_1">10 &lt; param_1</expression>
      <expression expected="10 &lt;= 10">10 &lt;= 10</expression>
      <expression expected="10 &lt;= 10">10 &lt;= 10</expression>
      <expression expected="10 &lt;= 10">10 &lt;= 10</expression>
      <expression expected="10 &lt;= param_1">10 &lt;= param_1</expression>
      <expression expected="10 &lt;= param_1">10 &lt;= param_1</expression>
      <expression expected="10 &lt;= param_1">10 &lt;= param_1</expression>
      <expression expected="10 &gt; 10">10 &gt; 10</expression>
      <expression expected="10 &gt; 10">10 &gt; 10</expression>
      <expression expected="10 &gt; 10">10 &gt; 10</expression>
      <expression expected="10 &gt; param_1">10 &gt; param_1</expression>
      <expression expected="10 &gt; param_1">10 &gt; param_1</expression>
      <expression expected="10 &gt; param_1">10 &gt; param_1</expression>
      <expression expected="10 &gt;= 10">10 &gt;= 10</expression>
      <expression expected="10 &gt;= 10">10 &gt;= 10</expression>
      <expression expected="10 &gt;= 10">10 &gt;= 10</expression>
      <expression expected="10 &gt;= param_1">10 &gt;= param_1</expression>
      <expression expected="10 &gt;= param_1">10 &gt;= param_1</expression>
      <expression expected="10 &gt;= param_1">10 &gt;= param_1</expression>
      <expression expected="'h4000 * param_1">'h4000 * param_1</expression>
      <expression expected="10 + parameter name + 10">10 + parameter name + 10</expression>
  </operator-whitespace-expressions>

  <concat-expressions>
      <expression expected="{'y', 'x', 'z'}">{'y', 'x', 'z'}</expression>
      <expression expected="{'y', {'y', 'x', 'z'}, 'z'}">{'y', {'y', 'x', 'z'}, 'z'}</expression>
      <expression expected="10 + {'y', 'x', 'z'}">10 + {'y', 'x', 'z'}</expression>
      <expression expected="{'y', 'x', 'z'} + 10">{'y', 'x', 'z'} + 10</expression>
      <expression expected="10 + {'y', 'x', 'z'} + 10">10 + {'y', 'x', 'z'} + 10</expression>
  </concat-expressions>

  <boolean-expressions>
      <expression expected="bit'(1)">bit'(1)</expression>
      <expression expected="bit'(y!= x) + 10">bit'(y!= x) + 10</expression>
      <expression expected="10 + bit'(1) + 10">10 + bit'(1) + 10</expression>
  </boolean-expressions>
  <not-expressions>
      <expression expected="!(1)">!(1)</expression>
      <expression expected="!(y!= x) + 10">!(y!= x) + 10</expression>
      <expression expected="10 + !(1) + 10">10 + !(1) + 10</expression>
  </not-expressions>
  <number-expressions>
      <expression expected="real'(parameter-name)">real'(parameter-name)</expression>
      <expression expected="real'(10)">real'(10)</expression>
      <expression expected="real'(parameter-name) + 10">real'(parameter-name) + 10</expression>
      <expression expected="10 + real'(parameter-name)">10 + real'(parameter-name)</expression>
      <expression expected="10 + real'(parameter-name) + 10">10 + real'(parameter-name) + 10</expression>
  </number-expressions>
  <floor-expressions>
      <expression expected="$floor(8.9)">$floor(8.9)</expression>
      <expression expected="$floor(8.9) + 10">$floor(8.9) + 10</expression>
      <expression expected="10 + $floor(8.9)">10 + $floor(8.9)</expression>
      <expression expected="10 + $floor(8.9) + 10">10 + $floor(8.9) + 10</expression>
  </floor-expressions>
  <ceiling-expressions>
      <expression expected="$ceil(8.9)">$ceil(8.9)</expression>
      <expression expected="$ceil(8.9) + 10">$ceil(8.9) + 10</expression>
      <expression expected="10 + $ceil(8.9)">10 + $ceil(8.9)</expression>
      <expression expected="10 + $ceil(8.9) + 10">10 + $ceil(8.9) + 10</expression>
  </ceiling-expressions>
  <round-expressions>
      <expression expected="longint'(8.9)">longint'(8.9)</expression>
      <expression expected="longint'(8.9) + 10">longint'(8.9) + 10</expression>
      <expression expected="10 + longint'(8.9)">10 + longint'(8.9)</expression>
      <expression expected="10 + longint'(8.9) + 10">10 + longint'(8.9) + 10</expression>
  </round-expressions>
  <pow-expressions>
      <expression expected="$pow(8, 9)">$pow(8, 9)</expression>
      <expression expected="$pow(10 + real'(parameter-name), real'(parameter-name))">$pow(10 + real'(parameter-name), real'(parameter-name))</expression>
      <expression expected="$pow(8, 9) + 10">$pow(8, 9) + 10</expression>
      <expression expected="10 + $pow(8, 9)">10 + $pow(8, 9)</expression>
      <expression expected="10 + $pow(8, 9) + 10">10 + $pow(8, 9) + 10</expression>
  </pow-expressions>
  <div-expressions>
      <expression expected="(1) / (2)">(1) / (2)</expression>
      <expression expected="(1) / 2">(1) / 2</expression>
      <expression expected="1 / (2)">1 / (2)</expression>
      <expression expected="1 / 2">1 / 2</expression>
  </div-expressions>
  <mod-expressions>
      <expression expected="(1) % (2)">(1) % (2)</expression>
      <expression expected="(1) % 2">(1) % 2</expression>
      <expression expected="1 % (2)">1 % (2)</expression>
      <expression expected="1 % 2">1 % 2</expression>
  </mod-expressions>
  <comparison-expressions>
      <expression expected="(1) == (2)">(1) == (2)</expression>
      <expression expected="1 == 2">1 == 2</expression>
      <expression expected="1 == 1">1 == 1</expression>
      <expression expected="1 &lt;= 2">1 &lt;= 2</expression>
      <expression expected="1 &gt;= (2)">1 &gt;= (2)</expression>
      <expression expected="1 &gt;= (2)">1 &gt;= (2)</expression>
  </comparison-expressions>
  <log-expressions>
      <expression expected="$log10(12)">$log10(12)</expression>
      <expression expected="$log10(real'(parameter-name))">$log10(real'(parameter-name))</expression>
      <expression expected="$ln(real'(parameter-name))/$ln(10 + real'(parameter-name))">$ln(real'(parameter-name))/$ln(10 + real'(parameter-name))</expression>
      <expression expected="$ln(9)/$ln(8) + 10">$ln(9)/$ln(8) + 10</expression>
      <expression expected="10 + $ln(9)/$ln(8)">10 + $ln(9)/$ln(8)</expression>
      <expression expected="10 + $ln(9)/$ln(8) + 10">10 + $ln(9)/$ln(8) + 10</expression>
  </log-expressions>
  <invalid-expressions>
      <expression expected="./x">./x</expression>
      <expression expected="..x">..x</expression>
      <expression expected="@x">@x</expression>
      <expression expected="x[]">x[]</expression>
      <expression expected="child::x">child::x</expression>
      <expression expected="10 * last()">10 * last()</expression>
      <expression expected="10 * position()">10 * position()</expression>
      <expression expected="10 * count(.)">10 * count(.)</expression>
      <expression expected="concat(local-name(), 'test')">concat(local-name(), 'test')</expression>
      <expression expected="concat(namespace-uri(), 'test')">{namespace - uri(), 'test'}</expression>
      <expression expected="concat(name(), 'test')">concat(name(), 'test')</expression>
      <expression expected="concat(string(.), 'test')">concat(string(.), 'test')</expression>
    
      <expression expected="starts-with('ipxact', 'ip')">starts - with('ipxact', 'ip')</expression>
      <expression expected="contains('ipxact', 'ip')">contains('ipxact', 'ip')</expression>
      <expression expected="substring-before('ipxact', 'xact')">substring-before('ipxact', 'xact')</expression>
      <expression expected="substring-after('ipxact', 'ip')">substring-after('ipxact', 'ip')</expression>
      <expression expected="substring(2, 'ipxact')">substring(2, 'ipxact')</expression>
      <expression expected="2 * string-length(2, 'ipxact')">2 * string-length(2, 'ipxact')</expression>
      <expression expected="normalize-space('ip  xact')">normalize - space('ip xact')</expression>
      <expression expected="translate('ipxact', 'ip', 'IP')">translate('ipxact', 'ip', 'IP')</expression>
      <expression expected=". = lang('en')">. = lang('en')</expression>
      <expression expected="spirit:log(10, 12) * number()">spirit:log(10, 12) * number()</expression>
      <expression expected="sum(*) + 10">sum(*) + 10</expression>
      <expression expected="spirit:containsToken('1.1 1.2 1.4 1685-2009', '1.5')">spirit:containsToken('1.1 1.2 1.4 1685-2009', '1.5')</expression>
  </invalid-expressions>
</expressions>